The share of learners in each course based on specific characteristics. — crsra_membershares • crsra
…
    Value

    A table which indicates the total number and the share of
students in each group for each course

    Examples

crsra_membershares(
example_course_import,
groupby = "country")
#> $`Fake Course`
#> # A tibble: 69 x 3
#>    y     Total Share
#>    <chr> <int> <dbl>
#>  1 US      143  0.31
#>  2 IN       53  0.12
#>  3 GB       19  0.04
#>  4 CN       17  0.04
#>  5 AU       15  0.03
#>  6 BR       15  0.03
#>  7 CA       13  0.03
#>  8 DE       11  0.02
#>  9 FR       11  0.02
#> 10 ES       10  0.02
#> # … with 59 more rows
…
